{
  "photos": {
    "page": 1,
    "pages": 50,
    "perpage": 10,
    "total": 500,
    "photo": [
      {
        "id": "51190594964",
        "owner": "138752302@N05",
        "secret": "fcdbdf784a",
        "server": "65535",
        "farm": 66,
        "title": "*Seceda at the golden hour*",
        "ispublic": 1,
        "isfriend": 0,
        "isfamily": 0
      },
      {
        "id": "51189685530",
        "owner": "143797678@N03",
        "secret": "3862826e00",
        "server": "65535",
        "farm": 66,
        "title": "apparent standstill",
        "ispublic": 1,
        "isfriend": 0,
        "isfamily": 0
      },
      {
        "id": "51191111818",
        "owner": "23171095@N05",
        "secret": "2e268fdefc",
        "server": "65535",
        "farm": 66,
        "title": "Radiating Waves of Force",
        "ispublic": 1,
        "isfriend": 0,
        "isfamily": 0
      },
      {
        "id": "51190161500",
        "owner": "39652177@N04",
        "secret": "07365da024",
        "server": "65535",
        "farm": 66,
        "title": "Red-tailed hawk",
        "ispublic": 1,
        "isfriend": 0,
        "isfamily": 0
      },
      {
        "id": "51192085050",
        "owner": "23409752@N08",
        "secret": "47501549c4",
        "server": "65535",
        "farm": 66,
        "title": "Crux, Carina & the Magellanic Clouds - Dowerin, Western Australia",
        "ispublic": 1,
        "isfriend": 0,
        "isfamily": 0
      },
      {
        "id": "51188588672",
        "owner": "37563893@N00",
        "secret": "16e88fa565",
        "server": "65535",
        "farm": 66,
        "title": "Aquarium Finisterrae",
        "ispublic": 1,
        "isfriend": 0,
        "isfamily": 0
      },
      {
        "id": "51190325693",
        "owner": "134360779@N04",
        "secret": "bba3c5f974",
        "server": "65535",
        "farm": 66,
        "title": "Une sauterelle recouverte de rosée",
        "ispublic": 1,
        "isfriend": 0,
        "isfamily": 0
      },
      {
        "id": "51190043130",
        "owner": "183453761@N05",
        "secret": "fba406b034",
        "server": "65535",
        "farm": 66,
        "title": ". . . . . . . . . . . . . . . . . .",
        "ispublic": 1,
        "isfriend": 0,
        "isfamily": 0
      },
      {
        "id": "51190237662",
        "owner": "62845223@N00",
        "secret": "73bc6bfe20",
        "server": "65535",
        "farm": 66,
        "title": "Venice, acqua alta",
        "ispublic": 1,
        "isfriend": 0,
        "isfamily": 0
      },
      {
        "id": "51191299896",
        "owner": "39877441@N05",
        "secret": "c15d085ab2",
        "server": "65535",
        "farm": 66,
        "title": "Sunrise, Brainard Lake [Explore]",
        "ispublic": 1,
        "isfriend": 0,
        "isfamily": 0
      }
    ]
  },
  "extra": {
    "explore_date": "2021-05-20",
    "next_prelude_interval": 9210
  },
  "stat": "ok"
}
