{
  "photos": {
    "page": 1,
    "pages": 25,
    "perpage": 20,
    "total": 500,
    "photo": [
      {
        "id": "51210078736",
        "owner": "127521717@N02",
        "secret": "e1683eb7fd",
        "server": "65535",
        "farm": 66,
        "title": "Working class heroes",
        "ispublic": 1,
        "isfriend": 0,
        "isfamily": 0
      },
      {
        "id": "51208685844",
        "owner": "138308002@N07",
        "secret": "43e48cc1a8",
        "server": "65535",
        "farm": 66,
        "title": "wandering around, girona",
        "ispublic": 1,
        "isfriend": 0,
        "isfamily": 0
      },
      {
        "id": "51210628919",
        "owner": "96229824@N06",
        "secret": "c2bf2b3935",
        "server": "65535",
        "farm": 66,
        "title": "Festivales Jaca (Huesca)",
        "ispublic": 1,
        "isfriend": 0,
        "isfamily": 0
      },
      {
        "id": "51209533498",
        "owner": "63480648@N03",
        "secret": "54ded1afbd",
        "server": "65535",
        "farm": 66,
        "title": "St Saviours Reservoir",
        "ispublic": 1,
        "isfriend": 0,
        "isfamily": 0
      },
      {
        "id": "51211510105",
        "owner": "47265398@N04",
        "secret": "074032e42a",
        "server": "65535",
        "farm": 66,
        "title": "lonely tree in the lake",
        "ispublic": 1,
        "isfriend": 0,
        "isfamily": 0
      },
      {
        "id": "51210708649",
        "owner": "158172432@N05",
        "secret": "e703bf7a1d",
        "server": "65535",
        "farm": 66,
        "title": "Green Parrots in Greenwich Park, London",
        "ispublic": 1,
        "isfriend": 0,
        "isfamily": 0
      },
      {
        "id": "51208771192",
        "owner": "48945861@N06",
        "secret": "2145edb17e",
        "server": "65535",
        "farm": 66,
        "title": "'Scuse Me While I Kiss the Sky",
        "ispublic": 1,
        "isfriend": 0,
        "isfamily": 0
      },
      {
        "id": "51209474218",
        "owner": "96244719@N04",
        "secret": "65c5374e72",
        "server": "65535",
        "farm": 66,
        "title": "Always",
        "ispublic": 1,
        "isfriend": 0,
        "isfamily": 0
      },
      {
        "id": "51211233345",
        "owner": "127130111@N06",
        "secret": "25077545ee",
        "server": "65535",
        "farm": 66,
        "title": "Katrine's Tree",
        "ispublic": 1,
        "isfriend": 0,
        "isfamily": 0
      },
      {
        "id": "51207987893",
        "owner": "85314460@N02",
        "secret": "e91bf3f3b8",
        "server": "65535",
        "farm": 66,
        "title": "Mirror clouds",
        "ispublic": 1,
        "isfriend": 0,
        "isfamily": 0
      },
      {
        "id": "51209978476",
        "owner": "66230680@N04",
        "secret": "22280053c3",
        "server": "65535",
        "farm": 66,
        "title": "Gravity (www.jamesbew.com)",
        "ispublic": 1,
        "isfriend": 0,
        "isfamily": 0
      },
      {
        "id": "51211145279",
        "owner": "76725632@N08",
        "secret": "0cba42c62b",
        "server": "65535",
        "farm": 66,
        "title": "Bombo 2021",
        "ispublic": 1,
        "isfriend": 0,
        "isfamily": 0
      },
      {
        "id": "51210053979",
        "owner": "80353766@N05",
        "secret": "6cace77a63",
        "server": "65535",
        "farm": 66,
        "title": "Indigo bunting",
        "ispublic": 1,
        "isfriend": 0,
        "isfamily": 0
      },
      {
        "id": "51211067814",
        "owner": "146376068@N03",
        "secret": "8a2c0081bc",
        "server": "65535",
        "farm": 66,
        "title": "Walking in Spring",
        "ispublic": 1,
        "isfriend": 0,
        "isfamily": 0
      },
      {
        "id": "51208139833",
        "owner": "58163091@N05",
        "secret": "a4f6403141",
        "server": "65535",
        "farm": 66,
        "title": "Seaham Beach .",
        "ispublic": 1,
        "isfriend": 0,
        "isfamily": 0
      },
      {
        "id": "51211188740",
        "owner": "50642939@N03",
        "secret": "a6e7d3511d",
        "server": "65535",
        "farm": 66,
        "title": "Extraños",
        "ispublic": 1,
        "isfriend": 0,
        "isfamily": 0
      },
      {
        "id": "51209652198",
        "owner": "33495985@N05",
        "secret": "fb1baa763b",
        "server": "65535",
        "farm": 66,
        "title": "FAIRYTALE ROMANCE",
        "ispublic": 1,
        "isfriend": 0,
        "isfamily": 0
      },
      {
        "id": "51209436251",
        "owner": "186268707@N07",
        "secret": "cd1aaa0b0e",
        "server": "65535",
        "farm": 66,
        "title": "Moustache",
        "ispublic": 1,
        "isfriend": 0,
        "isfamily": 0
      },
      {
        "id": "51211290625",
        "owner": "59386998@N07",
        "secret": "095f6e4fcc",
        "server": "65535",
        "farm": 66,
        "title": "[ ... the power of nature ]",
        "ispublic": 1,
        "isfriend": 0,
        "isfamily": 0
      },
      {
        "id": "51210540281",
        "owner": "184041269@N08",
        "secret": "7ca406cc59",
        "server": "65535",
        "farm": 66,
        "title": "Happy Saturday 😊",
        "ispublic": 1,
        "isfriend": 0,
        "isfamily": 0
      }
    ]
  },
  "extra": {
    "explore_date": "2021-05-29",
    "next_prelude_interval": 36110
  },
  "stat": "ok"
}
